{
  "ticker": {"S": "AAPL"},
  "marketCap": {"N": "2000000000000"},
  "lastPrice": {"N": "145.67"},
  "sector": {"S": "Technology"},
  "PE": {"N": "30.5"},
  "PB": {"N": "6.8"},
  "PS": {"N": "5.2"}
}